%YAML 1.1
%TAG !u! tag:unity3d.com,2011:
--- !u!114 &11400000
MonoBehaviour:
  m_ObjectHideFlags: 0
  m_CorrespondingSourceObject: {fileID: 0}
  m_PrefabInstance: {fileID: 0}
  m_PrefabAsset: {fileID: 0}
  m_GameObject: {fileID: 0}
  m_Enabled: 1
  m_EditorHideFlags: 0
  m_Script: {fileID: 11500000, guid: a07b5cd0b1b829245bc8c4b6978793e8, type: 3}
  m_Name: Localization Settings
  m_EditorClassIdentifier: 
  m_StartupSelectors:
  - id: 0
  - id: 1
  - id: 2
  m_AvailableLocales:
    id: 3
  m_AssetDatabase:
    id: 4
  m_StringDatabase:
    id: 5
  m_Metadata:
    m_Items: []
  m_ProjectLocaleIdentifier:
    m_Code: nl
  m_InitializeSynchronously: 0
  references:
    version: 1
    00000000:
      type: {class: CommandLineLocaleSelector, ns: UnityEngine.Localization.Settings, asm: Unity.Localization}
      data:
        m_CommandLineArgument: -language =
    00000001:
      type: {class: SystemLocaleSelector, ns: UnityEngine.Localization.Settings, asm: Unity.Localization}
    00000002:
      type: {class: SpecificLocaleSelector, ns: UnityEngine.Localization.Settings, asm: Unity.Localization}
      data:
        m_LocaleId:
          m_Code: nl
    00000003:
      type: {class: LocalesProvider, ns: UnityEngine.Localization.Settings, asm: Unity.Localization}
    00000004:
      type: {class: LocalizedAssetDatabase, ns: UnityEngine.Localization.Settings, asm: Unity.Localization}
      data:
        m_DefaultTableReference:
          m_TableCollectionName: 
        m_UseFallback: 0
    00000005:
      type: {class: LocalizedStringDatabase, ns: UnityEngine.Localization.Settings, asm: Unity.Localization}
      data:
        m_DefaultTableReference:
          m_TableCollectionName: 
        m_UseFallback: 0
        m_MissingTranslationState: 1
        m_NoTranslationFoundMessage: No translation found for '{key}' in {table.TableCollectionName}
        m_SmartFormat:
          id: 6
    00000006:
      type: {class: SmartFormatter, ns: UnityEngine.Localization.SmartFormat, asm: Unity.Localization}
      data:
        m_Settings:
          id: 7
        m_Parser:
          id: 8
        m_Sources:
        - id: 9
        - id: 10
        - id: 11
        - id: 12
        - id: 13
        - id: 14
        - id: 15
        m_Formatters:
        - id: 9
        - id: 16
        - id: 17
        - id: 18
        - id: 19
        - id: 20
        - id: 21
        - id: 22
        - id: 23
    00000007:
      type: {class: SmartSettings, ns: UnityEngine.Localization.SmartFormat.Core.Settings, asm: Unity.Localization}
      data:
        m_FormatErrorAction: 0
        m_ParseErrorAction: 0
        m_CaseSensitivity: 0
        m_ConvertCharacterStringLiterals: 1
    00000008:
      type: {class: Parser, ns: UnityEngine.Localization.SmartFormat.Core.Parsing, asm: Unity.Localization}
      data:
        m_OpeningBrace: 123
        m_ClosingBrace: 125
        m_Settings:
          id: 7
        m_AlphanumericSelectors: 1
        m_AllowedSelectorChars: _-
        m_Operators: '[]().,'
        m_AlternativeEscaping: 0
        m_AlternativeEscapeChar: 92
    00000009:
      type: {class: ListFormatter, ns: UnityEngine.Localization.SmartFormat.Extensions, asm: Unity.Localization}
      data:
        m_Names:
        - list
        - l
        - 
        m_SmartSettings:
          id: 7
    0000000A:
      type: {class: PersistentVariablesSource, ns: UnityEngine.Localization.SmartFormat.Extensions, asm: Unity.Localization}
      data:
        m_Groups: []
    0000000B:
      type: {class: DictionarySource, ns: UnityEngine.Localization.SmartFormat.Extensions, asm: Unity.Localization}
    0000000C:
      type: {class: ValueTupleSource, ns: UnityEngine.Localization.SmartFormat.Extensions, asm: Unity.Localization}
    0000000D:
      type: {class: XmlSource, ns: UnityEngine.Localization.SmartFormat.Extensions, asm: Unity.Localization}
    0000000E:
      type: {class: ReflectionSource, ns: UnityEngine.Localization.SmartFormat.Extensions, asm: Unity.Localization}
    0000000F:
      type: {class: DefaultSource, ns: UnityEngine.Localization.SmartFormat.Extensions, asm: Unity.Localization}
    00000010:
      type: {class: PluralLocalizationFormatter, ns: UnityEngine.Localization.SmartFormat.Extensions, asm: Unity.Localization}
      data:
        m_Names:
        - plural
        - p
        - 
        m_DefaultTwoLetterISOLanguageName: en
    00000011:
      type: {class: ConditionalFormatter, ns: UnityEngine.Localization.SmartFormat.Extensions, asm: Unity.Localization}
      data:
        m_Names:
        - conditional
        - cond
        - 
    00000012:
      type: {class: TimeFormatter, ns: UnityEngine.Localization.SmartFormat.Extensions, asm: Unity.Localization}
      data:
        m_Names:
        - timespan
        - time
        - t
        - 
        m_DefaultFormatOptions: 4646
    00000013:
      type: {class: XElementFormatter, ns: UnityEngine.Localization.SmartFormat.Extensions, asm: Unity.Localization}
      data:
        m_Names:
        - xelement
        - xml
        - x
        - 
    00000014:
      type: {class: ChooseFormatter, ns: UnityEngine.Localization.SmartFormat.Extensions, asm: Unity.Localization}
      data:
        m_Names:
        - choose
        - c
        m_SplitChar: 124
    00000015:
      type: {class: SubStringFormatter, ns: UnityEngine.Localization.SmartFormat.Extensions, asm: Unity.Localization}
      data:
        m_Names:
        - substr
        m_ParameterDelimiter: 44
        m_NullDisplayString: (null)
        m_OutOfRangeBehavior: 0
    00000016:
      type: {class: IsMatchFormatter, ns: UnityEngine.Localization.SmartFormat.Extensions, asm: Unity.Localization}
      data:
        m_Names:
        - ismatch
    00000017:
      type: {class: DefaultFormatter, ns: UnityEngine.Localization.SmartFormat.Extensions, asm: Unity.Localization}
      data:
        m_Names:
        - default
        - d
        - 
