{
"Date": "19/01/2022 21:40:20",
"UnityVersion": "2020.3.18f1",
"com.unity.scriptablebuildpipeline": "1.19.2",
"com.unity.addressables": "1.19.4",
"traceEvents": [
{"name": "Building Use Asset Database (fastest)", "ph": "X", "dur": 720.2, "tid": 1, "ts": 5265, "pid": 1}
]
}
